{
    "tokenSecret": "Personal Blog",
    "tokenExpires": "14d",
    "database": {
      "url": "mongodb+srv://root:khu2k@kimscorpius.uwehu.mongodb.net/personal-blog?retryWrites=true&w=majority",
      "options": {}
    },
    "cloudinary": {
      "cloudName": "da3mjtcz1",
      "apiKey": "656392233896817",
      "apiSecret": "s6YxmOozh17Kbzobjra7dNNj4EI"
    }
  }